[{

    "id": 1,
    "cedula": "1316458970",
    "apellidos": "Daniel",
    "nombres": "Poveda",
    "semestre": "Primero",
    "paralelo": "A"
},
{
    "id": 2,
    "cedula": "1312465466",
    "apellidos": "Donovan",
    "nombres": "Lucio",
    "semestre": "Noveno",
    "paralelo": "B"
},
{
    "id": 3,
    "cedula": "1313264588",
    "apellidos": "Mendoza",
    "nombres": "Fabricio",
    "semestre": "Primero",
    "paralelo": "A"
},
{
    "id": 4,
    "cedula": "13199945552",
    "apellidos": "Moreira",
    "nombres": "Lalo",
    "semestre": "Quinto",
    "paralelo": "B"
},
{
    "id": 5,
    "cedula": "1316459962",
    "apellidos": "Espinales",
    "nombres": "Johanna",
    "semestre": "Octavo",
    "paralelo": "D"
},
{
    "id": 6,
    "cedula": "135213546",
    "apellidos": "Palma",
    "nombres": "Pamela",
    "semestre": "Decimo",
    "paralelo": "A"
},
{
    "id": 7,
    "cedula": "134152352",
    "apellidos": "Valencia",
    "nombres": "Juan",
    "semestre": "Primero",
    "paralelo": "B"
},
{
    "id": 8,
    "cedula": "131465236",
    "apellidos": "Cedeño",
    "nombres": "Andres",
    "semestre": "Tercero",
    "paralelo": "C"
},
{
    "id": 9,
    "cedula": "1313665517",
    "apellidos": "Zapata",
    "nombres": "Wililan",
    "semestre": "Segundo",
    "paralelo": "A"
},
{
    "id": 10,
    "cedula": "1316644422",
    "apellidos": "Maldonado",
    "nombres": "Jose",
    "semestre": "Tercero",
    "paralelo": "C"
}
]